INDEX VERSION 1.126+/Users/NileshAgrawal/Desktop/CloudSync/.metadata/.plugins/org.eclipse.jdt.core
3373810400.index
2279320177.index
3173543946.index
1339853551.index
456098346.index
3661923512.index
2041599688.index
1270315800.index
1716310288.index
2554159343.index
3936484996.index
2755647476.index
749027003.index
3967409690.index
2522070089.index
2764585085.index
216460492.index
1415693123.index
733518832.index
1594669159.index
3329354845.index
3665383094.index
3507418323.index
1102069693.index
791983482.index
2439247234.index
2605604576.index
1796441516.index
2621428577.index
3767261764.index
3009857802.index
737058765.index
2936734192.index
615185187.index
3022602797.index
2100962260.index
2339628580.index
3300945147.index
2090537892.index
1959854360.index
3741208182.index
3789223677.index
2876160275.index
3781612081.index
978023179.index
2459857490.index
